{
    "name": "Quinmirn.UI.DialogBoxes.Runtime",
    "rootNamespace": "Quinmirn.UI.DialogBoxes",
    "references": [
        "GUID:d5e701606bc69e140abbc22df94d93a7",
        "GUID:9e24947de15b9834991c9d8411ea37cf",
        "GUID:84651a3751eca9349aac36a66bba901b"
    ],
    "includePlatforms": [],
    "excludePlatforms": [],
    "allowUnsafeCode": false,
    "overrideReferences": false,
    "precompiledReferences": [],
    "autoReferenced": true,
    "defineConstraints": [],
    "versionDefines": [],
    "noEngineReferences": false
}